@startuml
left to right direction
actor Client
actor "Empresa targetes crèdit" as paga
actor "Empresa missatgeria" as trans

rectangle "Procés de compra" {
usecase "Compra on-line" as compra
Client -- compra
compra -- trans
compra -- (Gestió pagament)
(Gestió pagament) -- paga
compra .> (Cerca catàleg) : include
compra ..> (Gestió carretó) : include
Client -- (Anul·lació compra)
Client -- (Reclamació)
}
@enduml
